{
  "counter_tag": "api-app-productionb-febc",
  "server_name": "api-app-node-productionb",
  "role": "app_server",
  "instance_count": "3",
  "instance_type": "m3.large",
  "hosts_tag": "tag_counter_tag_api-app-productionb-febc",
  "node_environment": "productionb",
  "git_tag": "v2."
}
