{
"api.version": "v1",
"sources": [
{
    "sourceType":"LocalFile",
    "blacklist":[],
    "name": "basic_syslog",
    "category":"OS_Audit",
    "filters":[],
    "pathExpression": "/var/log/syslog"
},
{
    "name":"pm2 logs",
    "category":"Application_Sage_PM2",
    "filters":[],
    "pathExpression":"/root/.pm2/logs/*.log",
    "blacklist":[],
    "sourceType":"LocalFile"
},
{
    "name":"Sage Logs",
    "category":"Application_Sage",
    "filters":[],
    "pathExpression":"/var/www/sage/v2/logs/*.log",
    "blacklist":[],
    "sourceType":"LocalFile"
},
{
    "name":"Nginx Access Log",
    "category":"Application_Nginx_Access",
    "filters":[],
    "pathExpression":"/var/log/nginx/access.log",
    "blacklist":[],
    "sourceType":"LocalFile"
},
{
    "name":"Nginx Error Log",
    "category":"Application_Nginx_Error",
    "filters":[],
    "pathExpression":"/var/log/nginx/error.log",
    "blacklist":[],
    "sourceType":"LocalFile"
}
]
}
